{
  "_license": "Mozilla Public License Version 2.0",
  "variables": {
    "name": "centos-7",
    "version": "1.0.4",
    "template": "centos-7-amd64",
    "headless": "true",
    "ssh_wait_timeout": "20m",
    "http_proxy": "{{env `http_proxy`}}",
    "https_proxy": "{{env `https_proxy`}}",
    "no_proxy": "{{env `no_proxy`}}",
    "iso_checksum": "19d94274ef856c4dfcacb2e7cfe4be73e442a71dd65cc3fb6e46db826040b56e",
    "iso_checksum_type": "sha256",
    "iso_name": "CentOS-7-x86_64-NetInstall-1810.iso",
    "mirror": "http://centos.bhs.mirrors.ovh.net",
    "mirror_directory": "7.6.1810/isos/x86_64",
    "kickstart_path": "7-ks.cfg",
    "user": "vagrant",
    "password": "vagrant",
    "generate_new_ssh_keys": "false"
  },

  "builders":
  [
    {
      "type": "qemu",
      "vm_name": "{{ user `template` }}",
      "iso_checksum": "{{user `iso_checksum`}}",
      "iso_checksum_type": "{{user `iso_checksum_type`}}",
      "iso_url": "{{user `mirror`}}/{{user `mirror_directory`}}/{{user `iso_name`}}",
      "http_directory": "{{template_dir}}/http",
      "output_directory": "{{template_dir}}/../packer-{{user `template`}}-qemu",
      "accelerator": "kvm",
      "disk_interface": "virtio",
      "disk_size": 10240,
      "format": "qcow2",
      "net_device": "virtio-net",
      "headless": "{{ user `headless` }}",
      "ssh_username": "{{user `user`}}",
      "ssh_password": "{{user `password`}}",
      "ssh_port": 22,
      "ssh_wait_timeout": "{{user `ssh_wait_timeout`}}",
      "boot_wait": "2s",
      "boot_command": [
        "<tab> text ks=http://{{ .HTTPIP }}:{{ .HTTPPort }}/{{user `kickstart_path`}}<enter><wait>"
      ],
      "shutdown_command": "echo '{{user `password`}}'|sudo -S shutdown -P now"
    }
  ],

  "provisioners": [
    {
      "type": "shell",
      "environment_vars": [
        "http_proxy={{user `http_proxy`}}",
        "https_proxy={{user `https_proxy`}}",
        "no_proxy={{user `no_proxy`}}",
        "GENERATE_NEW_SSH_KEYS={{user `generate_new_ssh_keys`}}"
      ],
      "execute_command": "echo '{{user `password`}}' | {{.Vars}} sudo -E -S bash '{{.Path}}'",
      "scripts": [
        "{{template_dir}}/scripts/update.sh",
        "{{template_dir}}/scripts/vagrant.sh",
        "{{template_dir}}/scripts/sshd.sh",
        "{{template_dir}}/scripts/puppet.sh",
        "{{template_dir}}/scripts/grub.sh",
        "{{template_dir}}/scripts/cleanup.sh",
        "{{template_dir}}/scripts/minimize.sh"
      ]
    }
  ],

  "post-processors": [
    {
      "keep_input_artifact": false,
      "type": "vagrant",
      "output": "{{template_dir}}/../builds/{{user `template`}}.{{.Provider}}.{{user `version`}}.box"
    }
  ]
}
